{"results":[{"popularity":318.742,"vote_count":413,"video":false,"poster_path":"\/s8qRIwA0zDPbnRekeU0rDwWE7q7.jpg","id":454626,"adult":false,"backdrop_path":"\/qonBhlm0UjuKX2sH7e73pnG0454.jpg","original_language":"en","original_title":"Sonic the Hedgehog","genre_ids":[28,35,878,10751],"title":"Sonic the Hedgehog","vote_average":7,"overview":"Based on the global blockbuster videogame franchise from Sega, Sonic the Hedgehog tells the story of the world’s speediest hedgehog as he embraces his new home on Earth. In this live-action adventure comedy, Sonic and his new best friend team up to defend the planet from the evil genius Dr. Robotnik and his plans for world domination.","release_date":"2020-02-12"},{"popularity":262.804,"vote_count":4440,"video":false,"poster_path":"\/7IiTTgloJzvGI1TAYymCfbfl3vT.jpg","id":496243,"adult":false,"backdrop_path":"\/TU9NIjwzjoKPwQHoHshkFcQUCG.jpg","original_language":"ko","original_title":"기생충","genre_ids":[35,18,53],"title":"Parasite","vote_average":8.6,"overview":"All unemployed, Ki-taek's family takes peculiar interest in the wealthy and glamorous Parks for their livelihood until they get entangled in an unexpected incident.","release_date":"2019-05-30"},{"popularity":183.431,"vote_count":812,"video":false,"poster_path":"\/h4VB6m0RwcicVEZvzftYZyKXs6K.jpg","id":495764,"adult":false,"backdrop_path":"\/uozb2VeD87YmhoUP1RrGWfzuCrr.jpg","original_language":"en","original_title":"Birds of Prey (and the Fantabulous Emancipation of One Harley Quinn)","genre_ids":[28,35,80],"title":"Birds of Prey (and the Fantabulous Emancipation of One Harley Quinn)","vote_average":6.8,"overview":"After her breakup with the Joker, Harley Quinn joins forces with singer Black Canary, assassin Huntress, and police detective Renee Montoya to help a young girl named Cassandra, who had a hit placed on her after she stole a rare diamond from crime lord Roman Sionis.","release_date":"2020-02-05"},{"popularity":158.233,"vote_count":62,"video":false,"poster_path":"\/33VdppGbeNxICrFUtW2WpGHvfYc.jpg","id":481848,"adult":false,"backdrop_path":"\/yFRpUmsreYO5Bc0HVBTsJsHIIox.jpg","original_language":"en","original_title":"The Call of the Wild","genre_ids":[12,18,10751],"title":"The Call of the Wild","vote_average":6,"overview":"A sled dog struggles for survival in the wilds of the Yukon.","release_date":"2020-02-19"},{"popularity":131.83,"vote_count":9361,"video":false,"poster_path":"\/udDclJoHjfjb8Ekgsd4FDteOkCU.jpg","id":475557,"adult":false,"backdrop_path":"\/n6bUvigpRFqSwmPp1m2YADdbRBc.jpg","original_language":"en","original_title":"Joker","genre_ids":[80,18,53],"title":"Joker","vote_average":8.3,"overview":"During the 1980s, a failed stand-up comedian is driven insane and turns to a life of crime and chaos in Gotham City while becoming an infamous psychopathic crime figure.","release_date":"2019-10-02"},{"popularity":127.172,"vote_count":2322,"video":false,"poster_path":"\/pThyQovXQrw2m0s9x82twj48Jq4.jpg","id":546554,"adult":false,"backdrop_path":"\/cjTQSwcsfVdirSFSHNBXRGkxmWa.jpg","original_language":"en","original_title":"Knives Out","genre_ids":[35,80,18,9648,53],"title":"Knives Out","vote_average":7.8,"overview":"When renowned crime novelist Harlan Thrombey is found dead at his estate just after his 85th birthday, the inquisitive and debonair Detective Benoit Blanc is mysteriously enlisted to investigate. From Harlan's dysfunctional family to his devoted staff, Blanc sifts through a web of red herrings and self-serving lies to uncover the truth behind Harlan's untimely death.","release_date":"2019-11-27"},{"popularity":112.193,"vote_count":1636,"video":false,"poster_path":"\/jyw8VKYEiM1UDzPB7NsisUgBeJ8.jpg","id":512200,"adult":false,"backdrop_path":"\/zTxHf9iIOCqRbxvl8W5QYKrsMLq.jpg","original_language":"en","original_title":"Jumanji: The Next Level","genre_ids":[28,12,35,14],"title":"Jumanji: The Next Level","vote_average":6.7,"overview":"As the gang return to Jumanji to rescue one of their own, they discover that nothing is as they expect. The players will have to brave parts unknown and unexplored in order to escape the world’s most dangerous game.","release_date":"2019-12-04"},{"popularity":104.771,"vote_count":928,"video":false,"poster_path":"\/y95lQLnuNKdPAzw9F9Ab8kJ80c3.jpg","id":38700,"adult":false,"backdrop_path":"\/upUy2QhMZEmtypPW3PdieKLAHxh.jpg","original_language":"en","original_title":"Bad Boys for Life","genre_ids":[28,80,53],"title":"Bad Boys for Life","vote_average":6.4,"overview":"Marcus and Mike are forced to confront new threats, career changes, and midlife crises as they join the newly created elite team AMMO of the Miami police department to take down the ruthless Armando Armas, the vicious leader of a Miami drug cartel.","release_date":"2020-01-15"},{"popularity":86.002,"vote_count":470,"video":false,"poster_path":"\/5eNiYMu2GXCtNlDwMcJqKGVwyoX.jpg","id":448119,"adult":false,"backdrop_path":"\/lG802rseTZcN9mtLsQPVfApEVzM.jpg","original_language":"en","original_title":"Dolittle","genre_ids":[12,35,14,10751],"title":"Dolittle","vote_average":6.4,"overview":"After losing his wife seven years earlier, the eccentric Dr. John Dolittle, famed doctor and veterinarian of Queen Victoria’s England, hermits himself away behind the high walls of Dolittle Manor with only his menagerie of exotic animals for company. But when the young queen falls gravely ill, a reluctant Dolittle is forced to set sail on an epic adventure to a mythical island in search of a cure, regaining his wit and courage as he crosses old adversaries and discovers wondrous creatures.","release_date":"2020-01-01"},{"popularity":84.072,"vote_count":2821,"video":false,"poster_path":"\/AuGiPiGMYMkSosOJ3BQjDEAiwtO.jpg","id":530915,"adult":false,"backdrop_path":"\/cqa3sa4c4jevgnEJwq3CMF8UfTG.jpg","original_language":"en","original_title":"1917","genre_ids":[28,18,10752],"title":"1917","vote_average":8,"overview":"At the height of the First World War, two young British soldiers must cross enemy territory and deliver a message that will stop a deadly attack on hundreds of soldiers.","release_date":"2019-12-10"},{"popularity":72.695,"vote_count":1652,"video":false,"poster_path":"\/6ApDtO7xaWAfPqfi2IARXIzj8QS.jpg","id":359724,"adult":false,"backdrop_path":"\/n3UanIvmnBlH531pykuzNs4LbH6.jpg","original_language":"en","original_title":"Ford v Ferrari","genre_ids":[28,18],"title":"Ford v Ferrari","vote_average":7.8,"overview":"American car designer Carroll Shelby and the British-born driver Ken Miles work together to battle corporate interference, the laws of physics, and their own personal demons to build a revolutionary race car for Ford Motor Company and take on the dominating race cars of Enzo Ferrari at the 24 Hours of Le Mans in France in 1966.","release_date":"2019-11-13"},{"popularity":71.555,"vote_count":135,"video":false,"poster_path":"\/hJ6YEbrjFvToa5c7IiUqILoB6Je.jpg","id":552178,"adult":false,"backdrop_path":"\/4ZSlTfkHtgTTupCaLbseXQQzZha.jpg","original_language":"en","original_title":"Dark Waters","genre_ids":[18],"title":"Dark Waters","vote_average":7.4,"overview":"A tenacious attorney uncovers a dark secret that connects a growing number of unexplained deaths due to one of the world's largest corporations. In the process, he risks everything — his future, his family, and his own life — to expose the truth.","release_date":"2019-11-22"},{"popularity":70.379,"vote_count":2057,"video":false,"poster_path":"\/7GsM4mtM0worCtIVeiQt28HieeN.jpg","id":515001,"adult":false,"backdrop_path":"\/agoBZfL1q5G79SD0npArSlJn8BH.jpg","original_language":"en","original_title":"Jojo Rabbit","genre_ids":[35,18,10752],"title":"Jojo Rabbit","vote_average":8.1,"overview":"A World War II satire that follows a lonely German boy whose world view is turned upside down when he discovers his single mother is hiding a young Jewish girl in their attic. Aided only by his idiotic imaginary friend, Adolf Hitler, Jojo must confront his blind nationalism.","release_date":"2019-10-18"},{"popularity":68.001,"vote_count":31,"video":false,"poster_path":"\/qZ1KAgfdeNbzrNYKW4BIRHdEBJ9.jpg","id":666750,"adult":false,"backdrop_path":"\/6mKAKhj8POVGqV1GsroS5mGIUe9.jpg","original_language":"en","original_title":"Dragonheart: Vengeance","genre_ids":[14],"title":"Dragonheart: Vengeance","vote_average":6.3,"overview":"Lukas, a young farmer whose family is killed by savage raiders in the countryside, sets out on an epic quest for revenge, forming an unlikely trio with a majestic dragon and a swashbuckling, sword-fighting mercenary, Darius.","release_date":"2020-02-04"},{"popularity":63.021,"vote_count":114,"video":false,"poster_path":"\/yqZdRSC6wfX6AGtBPfGbpvmNKag.jpg","id":539537,"adult":false,"backdrop_path":"\/dzfiE2VHY362dGI62XfZ2iI87CT.jpg","original_language":"en","original_title":"Fantasy Island","genre_ids":[14,27,878],"title":"Fantasy Island","vote_average":4.8,"overview":"A group of contest winners arrive at an island hotel to live out their dreams, only to find themselves trapped in nightmare scenarios.","release_date":"2020-02-12"},{"popularity":61.985,"vote_count":3020,"video":false,"poster_path":"\/db32LaOibwEliAmSL2jjDF6oDdj.jpg","id":181812,"adult":false,"backdrop_path":"\/jOzrELAzFxtMx2I4uDGHOotdfsS.jpg","original_language":"en","original_title":"Star Wars: The Rise of Skywalker","genre_ids":[28,12,878],"title":"Star Wars: The Rise of Skywalker","vote_average":6.5,"overview":"The surviving Resistance faces the First Order once again as the journey of Rey, Finn and Poe Dameron continues. With the power and knowledge of generations behind them, the final battle begins.","release_date":"2019-12-18"},{"popularity":59.43,"vote_count":460,"video":false,"poster_path":"\/1DPUFG6QnGqzpvEaDEv7TaepycM.jpg","id":458897,"adult":false,"backdrop_path":"\/a0xTB1vBxMGt6LGG4N7k1wO9lfL.jpg","original_language":"en","original_title":"Charlie's Angels","genre_ids":[28,12,35],"title":"Charlie's Angels","vote_average":6.4,"overview":"When a systems engineer blows the whistle on a dangerous technology, Charlie's Angels from across the globe are called into action, putting their lives on the line to protect society.","release_date":"2019-11-14"},{"popularity":57.442,"vote_count":17,"video":false,"poster_path":"\/tIpGQ9uuII7QVFF0GHCFTJFfXve.jpg","id":555974,"adult":false,"backdrop_path":"\/tE7SjDwITs333u4fBICqEmCRfgk.jpg","original_language":"en","original_title":"Brahms: The Boy II","genre_ids":[27,9648,53],"title":"Brahms: The Boy II","vote_average":6.6,"overview":"After a family moves into the Heelshire Mansion, their young son soon makes friends with a life-like doll called Brahms.","release_date":"2020-02-20"},{"popularity":51.951,"vote_count":9,"video":false,"poster_path":"\/ji1JO9bZX3pQ15lhU96dj0gZO74.jpg","id":526007,"adult":false,"backdrop_path":"\/kO651id9IGtMGz7OwT1ZThJ6NP2.jpg","original_language":"en","original_title":"The Night Clerk","genre_ids":[80,18],"title":"The Night Clerk","vote_average":7,"overview":"Hotel night clerk Bart Bromley is a highly intelligent young man on the Autism spectrum. When a woman is murdered during his shift, Bart becomes the prime suspect. As the police investigation closes in, Bart makes a personal connection with a beautiful guest named Andrea, but soon realises he must stop the real murderer before she becomes the next victim.","release_date":"2020-02-21"},{"popularity":49.737,"vote_count":15,"video":false,"poster_path":"\/8WUVHemHFH2ZIP6NWkwlHWsyrEL.jpg","id":338762,"adult":false,"backdrop_path":"\/ocUrMYbdjknu2TwzMHKT9PBBQRw.jpg","original_language":"en","original_title":"Bloodshot","genre_ids":[28,18,14,878],"title":"Bloodshot","vote_average":6.6,"overview":"After he and his wife are murdered, marine Ray Garrison is resurrected by a team of scientists. Enhanced with nanotechnology, he becomes a superhuman, biotech killing machine - Bloodshot. As Ray first trains with fellow super-soldiers, he cannot recall anything from his former life. But when his memories flood back and he remembers the man that killed both him and his wife, he breaks out of the facility to get revenge, only to discover that there's more to the conspiracy than he thought.","release_date":"2020-02-20"}],"page":1,"total_results":1100,"dates":{"maximum":"2020-02-24","minimum":"2020-01-07"},"total_pages":55}